…
    names(my_estat$key)
    #> [1] "移動後の住所地(現住地)2019～" "国籍"                        
    #> [3] "移動前の住所地(前住地)2019～" "年次"
    my_estat$value
    #> # A tibble: 1 x 4
    #>   code  name                     level unit 
    #>   <chr> <chr>                    <chr> <chr>
    #> 1 11    他市区町村からの転入者数 ""    人

`key`や`value`には各属性情報がデータフレームで格納されます．
例として`key`の「移動後の住所地(現住地)2019～」の属性情報を示します．

    my_estat$key$"移動後の住所地(現住地)2019～"
    #> # A tibble: 1,964 x 4
    #>    code  name         level parentCode
    #>    <chr> <chr>        <chr> <chr>     
    #>  1 01000 北海道       2     00005     
    #>  2 01100 札幌市       3     01000     
    #>  3 01101 札幌市中央区 4     01100     
    #>  4 01102 札幌市北区   4     01100     
    #>  5 01103 札幌市東区   4     01100     
    #>  6 01104 札幌市白石区 4     01100     
    #>  7 01105 札幌市豊平区 4     01100     
    #>  8 01106 札幌市南区   4     01100     
    #>  9 01107 札幌市西区   4     01100     
    #> 10 01108 札幌市厚別区 4     01100     
    #> # ... with 1,954 more rows
…
    my_estat$data %>% 
      select("name_移動後の住所地(現住地)2019～", "name_移動前の住所地(前住地)2019～", "他市区町村からの転入者数_人")
    #> # A tibble: 38 x 3
    #>    `name_移動後の住所地(現住地)2019～`~ `name_移動前の住所地(前住地)2019～`~ 他市区町村からの転入者数_人~
    #>    <chr>                       <chr>                                       <dbl>
    #>  1 北海道                      北海道                                     190867
    #>  2 北海道                      青森県                                       2191
    #>  3 北海道                      岩手県                                        936
    #>  4 北海道                      宮城県                                       2257
    #>  5 北海道                      秋田県                                        606
    #>  6 北海道                      福島県                                        809
    #>  7 北海道                      茨城県                                       1526
    #>  8 北海道                      栃木県                                        936
    #>  9 北海道                      群馬県                                        610
    #> 10 北海道                      埼玉県                                       3838
    #> # ... with 28 more rows
